{
    "exportFormatVersion": 2,
    "exportTime": "2020-02-29 09:43:50",
    "containerVersion": {
        "path": "accounts/23565264/containers/30733806/versions/0",
        "accountId": "23565264",
        "containerId": "30733806",
        "containerVersionId": "0",
        "container": {
            "path": "accounts/23565264/containers/30733806",
            "accountId": "23565264",
            "containerId": "30733806",
            "name": "Blog - DRD - JSON - Exports",
            "publicId": "GTM-PQB5T89",
            "usageContext": [
                "WEB"
            ],
            "fingerprint": "1582834904260",
            "tagManagerUrl": "https://tagmanager.google.com/#/container/accounts/23565264/containers/30733806/workspaces?apiLink=container"
        },
        "tag": [
            {
                "accountId": "23565264",
                "containerId": "30733806",
                "tagId": "4",
                "name": "GA - Event - Form - My Form - Complete - Via Page URL",
                "type": "ua",
                "parameter": [
                    {
                        "type": "BOOLEAN",
                        "key": "nonInteraction",
                        "value": "false"
                    },
                    {
                        "type": "BOOLEAN",
                        "key": "overrideGaSettings",
                        "value": "true"
                    },
                    {
                        "type": "TEMPLATE",
                        "key": "eventCategory",
                        "value": "form"
                    },
                    {
                        "type": "TEMPLATE",
                        "key": "trackType",
                        "value": "TRACK_EVENT"
                    },
                    {
                        "type": "TEMPLATE",
                        "key": "eventAction",
                        "value": "my form title"
                    },
                    {
                        "type": "TEMPLATE",
                        "key": "eventLabel",
                        "value": "complete"
                    },
                    {
                        "type": "TEMPLATE",
                        "key": "trackingId",
                        "value": "UA-123456789-0"
                    }
                ],
                "fingerprint": "1582835084499",
                "firingTriggerId": [
                    "3"
                ],
                "tagFiringOption": "ONCE_PER_EVENT",
                "monitoringMetadata": {
                    "type": "MAP"
                }
            },
            {
                "accountId": "23565264",
                "containerId": "30733806",
                "tagId": "7",
                "name": "GA - Event - Form - My Form - Submit - Via Click Id",
                "type": "ua",
                "parameter": [
                    {
                        "type": "BOOLEAN",
                        "key": "nonInteraction",
                        "value": "false"
                    },
                    {
                        "type": "BOOLEAN",
                        "key": "overrideGaSettings",
                        "value": "true"
                    },
                    {
                        "type": "TEMPLATE",
                        "key": "eventCategory",
                        "value": "form"
                    },
                    {
                        "type": "TEMPLATE",
                        "key": "trackType",
                        "value": "TRACK_EVENT"
                    },
                    {
                        "type": "TEMPLATE",
                        "key": "eventAction",
                        "value": "my form title"
                    },
                    {
                        "type": "TEMPLATE",
                        "key": "eventLabel",
                        "value": "submit"
                    },
                    {
                        "type": "TEMPLATE",
                        "key": "trackingId",
                        "value": "UA-123456789-0"
                    }
                ],
                "fingerprint": "1582835287944",
                "firingTriggerId": [
                    "5"
                ],
                "tagFiringOption": "ONCE_PER_EVENT",
                "monitoringMetadata": {
                    "type": "MAP"
                }
            },
            {
                "accountId": "23565264",
                "containerId": "30733806",
                "tagId": "8",
                "name": "GA - Event - Form - My Form - Submit - Via Click CSS",
                "type": "ua",
                "parameter": [
                    {
                        "type": "BOOLEAN",
                        "key": "nonInteraction",
                        "value": "false"
                    },
                    {
                        "type": "BOOLEAN",
                        "key": "overrideGaSettings",
                        "value": "true"
                    },
                    {
                        "type": "TEMPLATE",
                        "key": "eventCategory",
                        "value": "form"
                    },
                    {
                        "type": "TEMPLATE",
                        "key": "trackType",
                        "value": "TRACK_EVENT"
                    },
                    {
                        "type": "TEMPLATE",
                        "key": "eventAction",
                        "value": "my form title"
                    },
                    {
                        "type": "TEMPLATE",
                        "key": "eventLabel",
                        "value": "submit"
                    },
                    {
                        "type": "TEMPLATE",
                        "key": "trackingId",
                        "value": "UA-123456789-0"
                    }
                ],
                "fingerprint": "1582835317568",
                "firingTriggerId": [
                    "6"
                ],
                "tagFiringOption": "ONCE_PER_EVENT",
                "monitoringMetadata": {
                    "type": "MAP"
                }
            },
            {
                "accountId": "23565264",
                "containerId": "30733806",
                "tagId": "10",
                "name": "GA - Event - Form - All - Submit - Via Form Submission",
                "type": "ua",
                "parameter": [
                    {
                        "type": "BOOLEAN",
                        "key": "nonInteraction",
                        "value": "false"
                    },
                    {
                        "type": "BOOLEAN",
                        "key": "overrideGaSettings",
                        "value": "true"
                    },
                    {
                        "type": "TEMPLATE",
                        "key": "eventCategory",
                        "value": "form"
                    },
                    {
                        "type": "TEMPLATE",
                        "key": "trackType",
                        "value": "TRACK_EVENT"
                    },
                    {
                        "type": "TEMPLATE",
                        "key": "eventAction",
                        "value": "{{Form ID}}"
                    },
                    {
                        "type": "TEMPLATE",
                        "key": "eventLabel",
                        "value": "submit"
                    },
                    {
                        "type": "TEMPLATE",
                        "key": "trackingId",
                        "value": "UA-123456789-0"
                    }
                ],
                "fingerprint": "1582835409844",
                "firingTriggerId": [
                    "9"
                ],
                "tagFiringOption": "ONCE_PER_EVENT",
                "monitoringMetadata": {
                    "type": "MAP"
                }
            },
            {
                "accountId": "23565264",
                "containerId": "30733806",
                "tagId": "12",
                "name": "GA - Event - Form - My Form - Complete - Via Success Message Visible",
                "type": "ua",
                "parameter": [
                    {
                        "type": "BOOLEAN",
                        "key": "nonInteraction",
                        "value": "false"
                    },
                    {
                        "type": "BOOLEAN",
                        "key": "overrideGaSettings",
                        "value": "true"
                    },
                    {
                        "type": "TEMPLATE",
                        "key": "eventCategory",
                        "value": "form"
                    },
                    {
                        "type": "TEMPLATE",
                        "key": "trackType",
                        "value": "TRACK_EVENT"
                    },
                    {
                        "type": "TEMPLATE",
                        "key": "eventAction",
                        "value": "my form title"
                    },
                    {
                        "type": "TEMPLATE",
                        "key": "eventLabel",
                        "value": "complete"
                    },
                    {
                        "type": "TEMPLATE",
                        "key": "trackingId",
                        "value": "UA-123456789-0"
                    }
                ],
                "fingerprint": "1582838766039",
                "firingTriggerId": [
                    "11"
                ],
                "tagFiringOption": "ONCE_PER_EVENT",
                "monitoringMetadata": {
                    "type": "MAP"
                }
            },
            {
                "accountId": "23565264",
                "containerId": "30733806",
                "tagId": "14",
                "name": "CHTML - dataLayer - jQuery - Ajax - Success",
                "type": "html",
                "parameter": [
                    {
                        "type": "TEMPLATE",
                        "key": "html",
                        "value": "<!-- CHTML - dataLayer - jQuery - Ajax - Success -->\n<script>\n(function($){\n\ttry {\n\t\tif( typeof $ != 'undefined') {\n\t\t\t$(document).ajaxSuccess(function(event, request, settings) {\n             \ttry {\n\t\t\t\t\tif(typeof settings.url !== 'undefined') {\n\t\t\t\t\t\tif(dataLayer !== 'undefined') {\n\t\t\t\t\t\t\tvar targetUrl = settings.url;\n\t\t\t\t\t\t\tif(targetUrl) {\n\t\t\t\t\t\t\t\tvar response = request.responseJSON;\n\t\t\t\t\t\t\t\tif(!response) {\n\t\t\t\t\t\t\t\t\tresponse = request.responseText;\n\t\t\t\t\t\t\t\t}\n\t\t\t\t\t\t\t\tvar set = settings.data;\n\t\t\t\t\t\t\t\tif(set && typeof set === 'string' && set.indexOf('{\"') >= 0) {\n\t\t\t\t\t\t\t\t\tset = $.parseJSON(set);\n\t\t\t\t\t\t\t\t}\n\t\t\t\t\t\t\t\tdataLayer.push({\n\t\t\t\t\t\t\t\t\t'event': 'custom.request.success',\n\t\t\t\t\t\t\t\t\t'type' : 'ajax',\n\t\t\t\t\t\t\t\t\t'request' : {\n\t\t\t\t\t\t\t\t\t\t'url' : settings.url,\n\t\t\t\t\t\t\t\t\t\t'data' : set,\n\t\t\t\t\t\t\t\t\t\t'response' : response\n\t\t\t\t\t\t\t\t\t}\n\t\t\t\t\t\t\t\t});\n\t\t\t\t\t\t\t}\n\t\t\t\t\t\t}\n\t\t\t\t\t}\n\t\t\t\t} catch (err) {if({{Debug Mode}}) console.log(err);}\n\t\t\t});\n\t\t}\n\t} catch (err) {if({{Debug Mode}}) console.log(err);}\n})(jQuery);\n</script>"
                    },
                    {
                        "type": "BOOLEAN",
                        "key": "supportDocumentWrite",
                        "value": "false"
                    }
                ],
                "fingerprint": "1582840399166",
                "firingTriggerId": [
                    "13"
                ],
                "tagFiringOption": "ONCE_PER_EVENT",
                "monitoringMetadata": {
                    "type": "MAP"
                }
            },
            {
                "accountId": "23565264",
                "containerId": "30733806",
                "tagId": "18",
                "name": "GA - Event - Form - My Form - Complete - Via Ajax Success",
                "type": "ua",
                "parameter": [
                    {
                        "type": "BOOLEAN",
                        "key": "nonInteraction",
                        "value": "false"
                    },
                    {
                        "type": "BOOLEAN",
                        "key": "overrideGaSettings",
                        "value": "true"
                    },
                    {
                        "type": "TEMPLATE",
                        "key": "eventCategory",
                        "value": "form"
                    },
                    {
                        "type": "TEMPLATE",
                        "key": "trackType",
                        "value": "TRACK_EVENT"
                    },
                    {
                        "type": "TEMPLATE",
                        "key": "eventAction",
                        "value": "my form title"
                    },
                    {
                        "type": "TEMPLATE",
                        "key": "eventLabel",
                        "value": "complete"
                    },
                    {
                        "type": "TEMPLATE",
                        "key": "trackingId",
                        "value": "UA-123456789-0"
                    }
                ],
                "fingerprint": "1582840701321",
                "firingTriggerId": [
                    "16"
                ],
                "tagFiringOption": "ONCE_PER_EVENT",
                "monitoringMetadata": {
                    "type": "MAP"
                }
            },
            {
                "accountId": "23565264",
                "containerId": "30733806",
                "tagId": "19",
                "name": "CHTML - dataLayer - jQuery - Form - Submit",
                "type": "html",
                "parameter": [
                    {
                        "type": "TEMPLATE",
                        "key": "html",
                        "value": "<!-- CHTML - dataLayer - jQuery - Form - Submit - Data Runs Deep - 2020 -->\n<script>\n(function($){\n\ttry {\n\t\tif( typeof $ != 'undefined') {\n\t\t\t$(\"#myFormId\").submit(function(event) {\n\t\t\t\ttry {\n\t\t\t\t\tdataLayer.push({\n\t\t\t\t\t    \"event\" : \"custom.form.submit\",\n\t\t\t\t\t    \"category\" : \"form\",  \n\t\t\t\t\t    \"title\" : formTitle,\n\t\t\t\t\t    \"label\" : \"submit\",\n\t\t\t\t\t    \"data\" : undefined\n\t\t\t\t\t});\n\t\t\t\t} catch (err) {if({{Debug Mode}}) console.log(err);}\n\t\t\t});\n\t\t}\n\t} catch (err) {if({{Debug Mode}}) console.log(err);}\n})(jQuery);\n</script>\n"
                    },
                    {
                        "type": "BOOLEAN",
                        "key": "supportDocumentWrite",
                        "value": "false"
                    }
                ],
                "fingerprint": "1582844994092",
                "firingTriggerId": [
                    "13"
                ],
                "tagFiringOption": "ONCE_PER_EVENT",
                "monitoringMetadata": {
                    "type": "MAP"
                }
            },
            {
                "accountId": "23565264",
                "containerId": "30733806",
                "tagId": "22",
                "name": "GA - Event - Form - My Form - Submit - Via jQuery Submit",
                "type": "ua",
                "parameter": [
                    {
                        "type": "BOOLEAN",
                        "key": "nonInteraction",
                        "value": "false"
                    },
                    {
                        "type": "BOOLEAN",
                        "key": "overrideGaSettings",
                        "value": "true"
                    },
                    {
                        "type": "TEMPLATE",
                        "key": "eventCategory",
                        "value": "{{DLV - category}}"
                    },
                    {
                        "type": "TEMPLATE",
                        "key": "trackType",
                        "value": "TRACK_EVENT"
                    },
                    {
                        "type": "TEMPLATE",
                        "key": "eventAction",
                        "value": "{{DLV - title}}"
                    },
                    {
                        "type": "TEMPLATE",
                        "key": "eventLabel",
                        "value": "submit"
                    },
                    {
                        "type": "TEMPLATE",
                        "key": "trackingId",
                        "value": "UA-123456789-0"
                    }
                ],
                "fingerprint": "1582845216829",
                "firingTriggerId": [
                    "21"
                ],
                "tagFiringOption": "ONCE_PER_EVENT",
                "monitoringMetadata": {
                    "type": "MAP"
                }
            },
            {
                "accountId": "23565264",
                "containerId": "30733806",
                "tagId": "25",
                "name": "GA - Event - Form - My Form - Complete - Via dataLayer",
                "type": "ua",
                "parameter": [
                    {
                        "type": "BOOLEAN",
                        "key": "nonInteraction",
                        "value": "false"
                    },
                    {
                        "type": "BOOLEAN",
                        "key": "overrideGaSettings",
                        "value": "true"
                    },
                    {
                        "type": "TEMPLATE",
                        "key": "eventCategory",
                        "value": "{{DLV - category}}"
                    },
                    {
                        "type": "TEMPLATE",
                        "key": "trackType",
                        "value": "TRACK_EVENT"
                    },
                    {
                        "type": "TEMPLATE",
                        "key": "eventAction",
                        "value": "{{DLV - title}}"
                    },
                    {
                        "type": "TEMPLATE",
                        "key": "eventLabel",
                        "value": "complete"
                    },
                    {
                        "type": "TEMPLATE",
                        "key": "trackingId",
                        "value": "UA-123456789-0"
                    }
                ],
                "fingerprint": "1582845199731",
                "firingTriggerId": [
                    "23"
                ],
                "tagFiringOption": "ONCE_PER_EVENT",
                "monitoringMetadata": {
                    "type": "MAP"
                }
            }
        ],
        "trigger": [
            {
                "accountId": "23565264",
                "containerId": "30733806",
                "triggerId": "3",
                "name": "Page - My - Form - Complete",
                "type": "PAGEVIEW",
                "filter": [
                    {
                        "type": "MATCH_REGEX",
                        "parameter": [
                            {
                                "type": "TEMPLATE",
                                "key": "arg0",
                                "value": "{{Page URL}}"
                            },
                            {
                                "type": "TEMPLATE",
                                "key": "arg1",
                                "value": "/my/form/complete"
                            },
                            {
                                "type": "BOOLEAN",
                                "key": "ignore_case",
                                "value": "true"
                            }
                        ]
                    }
                ],
                "fingerprint": "1582834995846"
            },
            {
                "accountId": "23565264",
                "containerId": "30733806",
                "triggerId": "5",
                "name": "Click - My Form - Button - Submit - By Id",
                "type": "CLICK",
                "filter": [
                    {
                        "type": "EQUALS",
                        "parameter": [
                            {
                                "type": "TEMPLATE",
                                "key": "arg0",
                                "value": "{{Click ID}}"
                            },
                            {
                                "type": "TEMPLATE",
                                "key": "arg1",
                                "value": "myFormSubmitButtonId"
                            }
                        ]
                    }
                ],
                "fingerprint": "1582835156959"
            },
            {
                "accountId": "23565264",
                "containerId": "30733806",
                "triggerId": "6",
                "name": "Click - My Form - Button - Submit - By CSS",
                "type": "CLICK",
                "filter": [
                    {
                        "type": "CSS_SELECTOR",
                        "parameter": [
                            {
                                "type": "TEMPLATE",
                                "key": "arg0",
                                "value": "{{Click Element}}"
                            },
                            {
                                "type": "TEMPLATE",
                                "key": "arg1",
                                "value": "input[type=\"submit\"]"
                            }
                        ]
                    },
                    {
                        "type": "MATCH_REGEX",
                        "parameter": [
                            {
                                "type": "TEMPLATE",
                                "key": "arg0",
                                "value": "{{Page Path}}"
                            },
                            {
                                "type": "TEMPLATE",
                                "key": "arg1",
                                "value": "/my/form/page"
                            },
                            {
                                "type": "BOOLEAN",
                                "key": "ignore_case",
                                "value": "true"
                            }
                        ]
                    }
                ],
                "fingerprint": "1582835222879"
            },
            {
                "accountId": "23565264",
                "containerId": "30733806",
                "triggerId": "9",
                "name": "Form Submission - All",
                "type": "FORM_SUBMISSION",
                "filter": [
                    {
                        "type": "MATCH_REGEX",
                        "parameter": [
                            {
                                "type": "TEMPLATE",
                                "key": "arg0",
                                "value": "{{Form ID}}"
                            },
                            {
                                "type": "TEMPLATE",
                                "key": "arg1",
                                "value": ".*"
                            },
                            {
                                "type": "BOOLEAN",
                                "key": "ignore_case",
                                "value": "true"
                            }
                        ]
                    }
                ],
                "waitForTags": {
                    "type": "TEMPLATE"
                },
                "checkValidation": {
                    "type": "TEMPLATE"
                },
                "waitForTagsTimeout": {
                    "type": "TEMPLATE",
                    "value": "2000"
                },
                "uniqueTriggerId": {
                    "type": "TEMPLATE"
                },
                "fingerprint": "1582835359649"
            },
            {
                "accountId": "23565264",
                "containerId": "30733806",
                "triggerId": "11",
                "name": "Element Visibility - My Form - Success",
                "type": "ELEMENT_VISIBILITY",
                "filter": [
                    {
                        "type": "CONTAINS",
                        "parameter": [
                            {
                                "type": "TEMPLATE",
                                "key": "arg0",
                                "value": "{{Page Path}}"
                            },
                            {
                                "type": "TEMPLATE",
                                "key": "arg1",
                                "value": "/my/form/page"
                            }
                        ]
                    }
                ],
                "fingerprint": "1582835597750",
                "parameter": [
                    {
                        "type": "BOOLEAN",
                        "key": "useOnScreenDuration",
                        "value": "false"
                    },
                    {
                        "type": "BOOLEAN",
                        "key": "useDomChangeListener",
                        "value": "true"
                    },
                    {
                        "type": "TEMPLATE",
                        "key": "elementSelector",
                        "value": "div.myMessageHolder"
                    },
                    {
                        "type": "TEMPLATE",
                        "key": "firingFrequency",
                        "value": "MANY_PER_ELEMENT"
                    },
                    {
                        "type": "TEMPLATE",
                        "key": "selectorType",
                        "value": "CSS"
                    },
                    {
                        "type": "TEMPLATE",
                        "key": "onScreenRatio",
                        "value": "5"
                    }
                ]
            },
            {
                "accountId": "23565264",
                "containerId": "30733806",
                "triggerId": "13",
                "name": "Page - DOM Ready - My Form",
                "type": "DOM_READY",
                "filter": [
                    {
                        "type": "MATCH_REGEX",
                        "parameter": [
                            {
                                "type": "TEMPLATE",
                                "key": "arg0",
                                "value": "{{Page URL}}"
                            },
                            {
                                "type": "TEMPLATE",
                                "key": "arg1",
                                "value": "/my/form/page"
                            },
                            {
                                "type": "BOOLEAN",
                                "key": "ignore_case",
                                "value": "true"
                            }
                        ]
                    }
                ],
                "fingerprint": "1582840282908"
            },
            {
                "accountId": "23565264",
                "containerId": "30733806",
                "triggerId": "16",
                "name": "CE - custom.request.success - My Form",
                "type": "CUSTOM_EVENT",
                "customEventFilter": [
                    {
                        "type": "EQUALS",
                        "parameter": [
                            {
                                "type": "TEMPLATE",
                                "key": "arg0",
                                "value": "{{_event}}"
                            },
                            {
                                "type": "TEMPLATE",
                                "key": "arg1",
                                "value": "custom.request.success"
                            }
                        ]
                    }
                ],
                "filter": [
                    {
                        "type": "MATCH_REGEX",
                        "parameter": [
                            {
                                "type": "TEMPLATE",
                                "key": "arg0",
                                "value": "{{DLV - request.response}}"
                            },
                            {
                                "type": "TEMPLATE",
                                "key": "arg1",
                                "value": ".*success.*"
                            },
                            {
                                "type": "BOOLEAN",
                                "key": "ignore_case",
                                "value": "true"
                            }
                        ]
                    },
                    {
                        "type": "MATCH_REGEX",
                        "parameter": [
                            {
                                "type": "TEMPLATE",
                                "key": "arg0",
                                "value": "{{DLV - request.url}}"
                            },
                            {
                                "type": "TEMPLATE",
                                "key": "arg1",
                                "value": "/my/form/service/url"
                            },
                            {
                                "type": "BOOLEAN",
                                "key": "ignore_case",
                                "value": "true"
                            }
                        ]
                    }
                ],
                "fingerprint": "1582840641391"
            },
            {
                "accountId": "23565264",
                "containerId": "30733806",
                "triggerId": "21",
                "name": "CE - custom.form.submit - My Form",
                "type": "CUSTOM_EVENT",
                "customEventFilter": [
                    {
                        "type": "EQUALS",
                        "parameter": [
                            {
                                "type": "TEMPLATE",
                                "key": "arg0",
                                "value": "{{_event}}"
                            },
                            {
                                "type": "TEMPLATE",
                                "key": "arg1",
                                "value": "custom.form.submit"
                            }
                        ]
                    }
                ],
                "filter": [
                    {
                        "type": "MATCH_REGEX",
                        "parameter": [
                            {
                                "type": "TEMPLATE",
                                "key": "arg0",
                                "value": "{{DLV - title}}"
                            },
                            {
                                "type": "TEMPLATE",
                                "key": "arg1",
                                "value": "myForm"
                            },
                            {
                                "type": "BOOLEAN",
                                "key": "ignore_case",
                                "value": "true"
                            }
                        ]
                    }
                ],
                "fingerprint": "1582844263131"
            },
            {
                "accountId": "23565264",
                "containerId": "30733806",
                "triggerId": "23",
                "name": "CE - custom.form.complete - My Form",
                "type": "CUSTOM_EVENT",
                "customEventFilter": [
                    {
                        "type": "EQUALS",
                        "parameter": [
                            {
                                "type": "TEMPLATE",
                                "key": "arg0",
                                "value": "{{_event}}"
                            },
                            {
                                "type": "TEMPLATE",
                                "key": "arg1",
                                "value": "custom.form.complete"
                            }
                        ]
                    }
                ],
                "filter": [
                    {
                        "type": "MATCH_REGEX",
                        "parameter": [
                            {
                                "type": "TEMPLATE",
                                "key": "arg0",
                                "value": "{{DLV - title}}"
                            },
                            {
                                "type": "TEMPLATE",
                                "key": "arg1",
                                "value": "myForm"
                            },
                            {
                                "type": "BOOLEAN",
                                "key": "ignore_case",
                                "value": "true"
                            }
                        ]
                    }
                ],
                "fingerprint": "1582845018427"
            }
        ],
        "variable": [
            {
                "accountId": "23565264",
                "containerId": "30733806",
                "variableId": "15",
                "name": "DLV - request.response",
                "type": "v",
                "parameter": [
                    {
                        "type": "INTEGER",
                        "key": "dataLayerVersion",
                        "value": "2"
                    },
                    {
                        "type": "BOOLEAN",
                        "key": "setDefaultValue",
                        "value": "false"
                    },
                    {
                        "type": "TEMPLATE",
                        "key": "name",
                        "value": "request.response"
                    }
                ],
                "fingerprint": "1582840453915",
                "formatValue": {}
            },
            {
                "accountId": "23565264",
                "containerId": "30733806",
                "variableId": "17",
                "name": "DLV - request.url",
                "type": "v",
                "parameter": [
                    {
                        "type": "INTEGER",
                        "key": "dataLayerVersion",
                        "value": "2"
                    },
                    {
                        "type": "BOOLEAN",
                        "key": "setDefaultValue",
                        "value": "false"
                    },
                    {
                        "type": "TEMPLATE",
                        "key": "name",
                        "value": "request.url"
                    }
                ],
                "fingerprint": "1582840614753",
                "formatValue": {}
            },
            {
                "accountId": "23565264",
                "containerId": "30733806",
                "variableId": "20",
                "name": "DLV - title",
                "type": "v",
                "parameter": [
                    {
                        "type": "INTEGER",
                        "key": "dataLayerVersion",
                        "value": "2"
                    },
                    {
                        "type": "BOOLEAN",
                        "key": "setDefaultValue",
                        "value": "false"
                    },
                    {
                        "type": "TEMPLATE",
                        "key": "name",
                        "value": "title"
                    }
                ],
                "fingerprint": "1582844159936",
                "formatValue": {}
            },
            {
                "accountId": "23565264",
                "containerId": "30733806",
                "variableId": "24",
                "name": "DLV - category",
                "type": "v",
                "parameter": [
                    {
                        "type": "INTEGER",
                        "key": "dataLayerVersion",
                        "value": "2"
                    },
                    {
                        "type": "BOOLEAN",
                        "key": "setDefaultValue",
                        "value": "false"
                    },
                    {
                        "type": "TEMPLATE",
                        "key": "name",
                        "value": "category"
                    }
                ],
                "fingerprint": "1582845180507",
                "formatValue": {}
            }
        ],
        "builtInVariable": [
            {
                "accountId": "23565264",
                "containerId": "30733806",
                "type": "PAGE_URL",
                "name": "Page URL"
            },
            {
                "accountId": "23565264",
                "containerId": "30733806",
                "type": "PAGE_HOSTNAME",
                "name": "Page Hostname"
            },
            {
                "accountId": "23565264",
                "containerId": "30733806",
                "type": "PAGE_PATH",
                "name": "Page Path"
            },
            {
                "accountId": "23565264",
                "containerId": "30733806",
                "type": "REFERRER",
                "name": "Referrer"
            },
            {
                "accountId": "23565264",
                "containerId": "30733806",
                "type": "EVENT",
                "name": "Event"
            },
            {
                "accountId": "23565264",
                "containerId": "30733806",
                "type": "CLICK_ELEMENT",
                "name": "Click Element"
            },
            {
                "accountId": "23565264",
                "containerId": "30733806",
                "type": "CLICK_CLASSES",
                "name": "Click Classes"
            },
            {
                "accountId": "23565264",
                "containerId": "30733806",
                "type": "CLICK_ID",
                "name": "Click ID"
            },
            {
                "accountId": "23565264",
                "containerId": "30733806",
                "type": "CLICK_URL",
                "name": "Click URL"
            },
            {
                "accountId": "23565264",
                "containerId": "30733806",
                "type": "CLICK_TEXT",
                "name": "Click Text"
            },
            {
                "accountId": "23565264",
                "containerId": "30733806",
                "type": "FORM_ELEMENT",
                "name": "Form Element"
            },
            {
                "accountId": "23565264",
                "containerId": "30733806",
                "type": "FORM_ID",
                "name": "Form ID"
            },
            {
                "accountId": "23565264",
                "containerId": "30733806",
                "type": "FORM_URL",
                "name": "Form URL"
            },
            {
                "accountId": "23565264",
                "containerId": "30733806",
                "type": "DEBUG_MODE",
                "name": "Debug Mode"
            }
        ],
        "fingerprint": "1582969430252",
        "tagManagerUrl": "https://tagmanager.google.com/#/versions/accounts/23565264/containers/30733806/versions/0?apiLink=version"
    }
}